ang_dada2
…
rowSums(seqtab) %>%
  enframe(name = "sample", value = "tabled") ->
  tabled
track %<>% full_join(tabled, by = c("sample"))

rowSums(seqtab.nochim) %>%
  enframe(name = "sample", value = "nonchim") ->
  nonchim
track %<>% full_join(nonchim, by = c("sample"))

track

## # A tibble: 153 x 6
##    sample      input filtered denoised tabled nonchim
##    <chr>       <dbl>    <dbl>    <int>  <dbl>   <dbl>
##  1 SRR8801251 114577    99508    98493  98493   82850
##  2 SRR8801252 100401    87646    86780  86780   72783
##  3 SRR8801253  88537    77906    77179  77179   65695
##  4 SRR8801254 111567    97868    97055  97055   77246
##  5 SRR8801255  86796    75168    74436  74436   63137
##  6 SRR8801256 110211    95651    94575  94575   79728
##  7 SRR8801257 107968    93820    92873  92873   78878
##  8 SRR8801258 112535    99169    98184  98184   85297
##  9 SRR8801259 103847    90871    90009  90009   75558
## 10 SRR8801260  96103    83935    83085  83085   70590
## #  with 143 more rows
…
