Matson DADA2
…
rowSums(seqtab2) %>%
  enframe(name = "sample", value = "tabled") ->
  tabled
track %<>% full_join(tabled, by = c("sample"))

rowSums(seqtab.nochim) %>%
  enframe(name = "sample", value = "nonchim") ->
  nonchim
track %<>% full_join(nonchim, by = c("sample"))

track

## # A tibble: 42 x 7
##    sample     input filtered denoised merged tabled nonchim
##    <chr>      <dbl>    <dbl>    <int>  <int>  <dbl>   <dbl>
##  1 SRR6000872 24074    23323    23117  22031  22012   21867
##  2 SRR6000875 29289    28411    28121  26816  26816   25948
##  3 SRR6000876 27532    26626    26387  25314  25314   24337
##  4 SRR6000879 32198    31207    30971  29553  29553   29107
##  5 SRR6000880 22892    22315    22149  21591  21588   20171
##  6 SRR6000881 27802    26889    26595  25273  25273   24995
##  7 SRR6000882 34464    33352    32986  31426  31426   31076
##  8 SRR6000883 29240    28332    28052  26750  26738   26115
##  9 SRR6000884 27881    26870    26699  25679  25679   25236
## 10 SRR6000885 30424    29426    28993  27185  27185   26974
## #  with 32 more rows
…
